{
  "emoji": [
    "\u0031\u20E3",
    "\u0032\u20E3",
    "\u0033\u20E3",
    "\u0034\u20E3",
    "\u0035\u20E3",
    "\u0036\u20E3",
    "\u0037\u20E3",
    "\u0038\u20E3",
    "\u0039\u20E3",
    "\u0040\u20E3"
  ]
}